{
  "data": [
    {
      "autoNo": "98624891045257334",
      "applyDate": "2024/02/01 12:13:23",
      "jobNo": 12767506,
      "jobName": "Python web 工程師",
      "jobUrl": "//www.104.com.tw/job/7lngy",
      "custName": "大葉高島屋百貨股份有限公司",
      "custUrl": "//www.104.com.tw/company/13om0tew",
      "snapshotUrl": "//pda.104.com.tw/profile/applySnapshot?sid=b8rzn2",
      "examReportUrl": "https://guide.104.com.tw/personality/report/applyReport/7lngy?utm_source=104jb&utm_medium=applyRecord​",
      "custCheckDate": "2024/02/01 12:39:15",
      "custReplyDate": "",
      "replyUrl": "",
      "hrReplyCount": 7,
      "analysisType": 3,
      "analysisUrl": "//www.104.com.tw/jobs/apply/analysis/7lngy",
      "jobSwitch": "on",
      "custSwitch": "on",
      "cancelDeadline": ""
    },
    {
      "autoNo": "98624891045256298",
      "applyDate": "2024/02/01 12:12:09",
      "jobNo": 12953477,
      "jobName": "總公司【資訊系統開發部】JAVA軟體工程師(核心應用系統)",
      "jobUrl": "//www.104.com.tw/job/7pmyt",
      "custName": "元大人壽保險股份有限公司(總公司)",
      "custUrl": "//www.104.com.tw/company/10wiapy0",
      "snapshotUrl": "//pda.104.com.tw/profile/applySnapshot?sid=b8rzik",
      "examReportUrl": "https://guide.104.com.tw/personality/report/applyReport/7pmyt?utm_source=104jb&utm_medium=applyRecord​",
      "custCheckDate": "2024/02/01 13:16:45",
      "custReplyDate": "2024/02/01 13:53:08",
      "replyUrl": "//pda.104.com.tw/work/message/chat/7pmyt",
      "hrReplyCount": 1,
      "analysisType": 1,
      "analysisUrl": "//www.104.com.tw/jobs/apply/analysis/7pmyt",
      "jobSwitch": "on",
      "custSwitch": "on",
      "cancelDeadline": ""
    },
    {
      "autoNo": "98624891045253333",
      "applyDate": "2024/02/01 12:09:05",
      "jobNo": 11775383,
      "jobName": "904 - 初級數位金融科技軟體工程師",
      "jobUrl": "//www.104.com.tw/job/70dxz",
      "custName": "安泰商業銀行股份有限公司",
      "custUrl": "//www.104.com.tw/company/13xn0qy0",
      "snapshotUrl": "//pda.104.com.tw/profile/applySnapshot?sid=b8rz7d",
      "examReportUrl": "https://guide.104.com.tw/personality/report/applyReport/70dxz?utm_source=104jb&utm_medium=applyRecord​",
      "custCheckDate": "2024/02/07 10:27:04",
      "custReplyDate": "",
      "replyUrl": "",
      "hrReplyCount": 0,
      "analysisType": 1,
      "analysisUrl": "//www.104.com.tw/jobs/apply/analysis/70dxz",
      "jobSwitch": "on",
      "custSwitch": "on",
      "cancelDeadline": ""
    },
    {
      "autoNo": "98624891045251301",
      "applyDate": "2024/02/01 12:06:34",
      "jobNo": 11122125,
      "jobName": "北公司─程式設計",
      "jobUrl": "//www.104.com.tw/job/6mdvx",
      "custName": "台灣玻璃工業股份有限公司",
      "custUrl": "//www.104.com.tw/company/5h1aes0",
      "snapshotUrl": "//pda.104.com.tw/profile/applySnapshot?sid=b8ryy7",
      "examReportUrl": "https://guide.104.com.tw/personality/report/applyReport/6mdvx?utm_source=104jb&utm_medium=applyRecord​",
      "custCheckDate": "2024/02/01 13:37:47",
      "custReplyDate": "",
      "replyUrl": "",
      "hrReplyCount": 0,
      "analysisType": 2,
      "analysisUrl": "//www.104.com.tw/jobs/apply/analysis/6mdvx",
      "jobSwitch": "on",
      "custSwitch": "on",
      "cancelDeadline": ""
    },
    {
      "autoNo": "98624891033990789",
      "applyDate": "2024/01/21 08:44:33",
      "jobNo": 13807304,
      "jobName": "【技術部】遊戲工程師",
      "jobUrl": "//www.104.com.tw/job/87xs8",
      "custName": "曙光科技股份有限公司",
      "custUrl": "//www.104.com.tw/company/1a2x6blyc5",
      "snapshotUrl": "//pda.104.com.tw/profile/applySnapshot?sid=b7v8dy",
      "examReportUrl": "",
      "custCheckDate": "2024/01/21 19:10:46",
      "custReplyDate": "2024/01/21 19:12:30",
      "replyUrl": "//pda.104.com.tw/work/message/chat/87xs8",
      "hrReplyCount": 1,
      "analysisType": 2,
      "analysisUrl": "//www.104.com.tw/jobs/apply/analysis/87xs8",
      "jobSwitch": "on",
      "custSwitch": "on",
      "cancelDeadline": ""
    },
    {
      "autoNo": "98624891033559971",
      "applyDate": "2024/01/20 11:39:32",
      "jobNo": 3707871,
      "jobName": "JSP/JAVA 開發工程師",
      "jobUrl": "//www.104.com.tw/job/27h0f",
      "custName": "楓橡科技股份有限公司",
      "custUrl": "//www.104.com.tw/company/7mfclcg",
      "snapshotUrl": "//pda.104.com.tw/profile/applySnapshot?sid=b7tq9x",
      "examReportUrl": "",
      "custCheckDate": "2024/01/20 20:48:28",
      "custReplyDate": "",
      "replyUrl": "",
      "hrReplyCount": 0,
      "analysisType": 2,
      "analysisUrl": "//www.104.com.tw/jobs/apply/analysis/27h0f",
      "jobSwitch": "on",
      "custSwitch": "on",
      "cancelDeadline": ""
    },
    {
      "autoNo": "98624891033559673",
      "applyDate": "2024/01/20 11:38:56",
      "jobNo": 5918937,
      "jobName": "程式設計工程師(北市)",
      "jobUrl": "//www.104.com.tw/job/3iv2x",
      "custName": "春源鋼鐵工業股份有限公司",
      "custUrl": "//www.104.com.tw/company/5aojo5s",
      "snapshotUrl": "//pda.104.com.tw/profile/applySnapshot?sid=b7tq91",
      "examReportUrl": "",
      "custCheckDate": "2024/01/22 13:06:38",
      "custReplyDate": "",
      "replyUrl": "",
      "hrReplyCount": 0,
      "analysisType": 1,
      "analysisUrl": "//www.104.com.tw/jobs/apply/analysis/3iv2x",
      "jobSwitch": "on",
      "custSwitch": "on",
      "cancelDeadline": ""
    },
    {
      "autoNo": "98624891033558773",
      "applyDate": "2024/01/20 11:37:19",
      "jobNo": 13464280,
      "jobName": "Java系統開發工程師(數位科技處)",
      "jobUrl": "//www.104.com.tw/job/80l3s",
      "custName": "全球人壽保險股份有限公司_總公司",
      "custUrl": "//www.104.com.tw/company/wj720zk",
      "snapshotUrl": "//pda.104.com.tw/profile/applySnapshot?sid=b7tq47",
      "examReportUrl": "",
      "custCheckDate": "2024/01/20 17:00:30",
      "custReplyDate": "",
      "replyUrl": "",
      "hrReplyCount": 0,
      "analysisType": 3,
      "analysisUrl": "//www.104.com.tw/jobs/apply/analysis/80l3s",
      "jobSwitch": "on",
      "custSwitch": "on",
      "cancelDeadline": ""
    },
    {
      "autoNo": "98624891033558347",
      "applyDate": "2024/01/20 11:36:24",
      "jobNo": 5737175,
      "jobName": "JAVA程式設計師",
      "jobUrl": "//www.104.com.tw/job/3eytz",
      "custName": "聯邦商業銀行股份有限公司",
      "custUrl": "//www.104.com.tw/company/13okwde9",
      "snapshotUrl": "//pda.104.com.tw/profile/applySnapshot?sid=b7tq26",
      "examReportUrl": "",
      "custCheckDate": "",
      "custReplyDate": "",
      "replyUrl": "",
      "hrReplyCount": 0,
      "analysisType": 3,
      "analysisUrl": "//www.104.com.tw/jobs/apply/analysis/3eytz",
      "jobSwitch": "on",
      "custSwitch": "on",
      "cancelDeadline": ""
    },
    {
      "autoNo": "98624891033557941",
      "applyDate": "2024/01/20 11:35:22",
      "jobNo": 5302628,
      "jobName": "〔資訊〕Java 程式設計師 (法金系統)",
      "jobUrl": "//www.104.com.tw/job/35nj8",
      "custName": "台新金控_台新國際商業銀行股份有限公司",
      "custUrl": "//www.104.com.tw/company/13qvhzjs",
      "snapshotUrl": "//pda.104.com.tw/profile/applySnapshot?sid=b7tpzu",
      "examReportUrl": "",
      "custCheckDate": "",
      "custReplyDate": "",
      "replyUrl": "",
      "hrReplyCount": 0,
      "analysisType": 1,
      "analysisUrl": "//www.104.com.tw/jobs/apply/analysis/35nj8",
      "jobSwitch": "on",
      "custSwitch": "on",
      "cancelDeadline": ""
    },
    {
      "autoNo": "98624891033556489",
      "applyDate": "2024/01/20 11:32:57",
      "jobNo": 10667754,
      "jobName": "程式設計師",
      "jobUrl": "//www.104.com.tw/job/6cnai",
      "custName": "會通資訊股份有限公司",
      "custUrl": "//www.104.com.tw/company/7i9kns0",
      "snapshotUrl": "//pda.104.com.tw/profile/applySnapshot?sid=b7tpty",
      "examReportUrl": "",
      "custCheckDate": "",
      "custReplyDate": "",
      "replyUrl": "",
      "hrReplyCount": 0,
      "analysisType": 1,
      "analysisUrl": "//www.104.com.tw/jobs/apply/analysis/6cnai",
      "jobSwitch": "on",
      "custSwitch": "on",
      "cancelDeadline": ""
    },
    {
      "autoNo": "98624891033555646",
      "applyDate": "2024/01/20 11:31:28",
      "jobNo": 7290771,
      "jobName": "助理工程師",
      "jobUrl": "//www.104.com.tw/job/4c9lf",
      "custName": "禾多移動多媒體股份有限公司",
      "custUrl": "//www.104.com.tw/company/1a2x6biaz4",
      "snapshotUrl": "//pda.104.com.tw/profile/applySnapshot?sid=b7tppv",
      "examReportUrl": "",
      "custCheckDate": "2024/01/20 11:45:08",
      "custReplyDate": "",
      "replyUrl": "",
      "hrReplyCount": 1,
      "analysisType": 3,
      "analysisUrl": "//www.104.com.tw/jobs/apply/analysis/4c9lf",
      "jobSwitch": "on",
      "custSwitch": "on",
      "cancelDeadline": ""
    },
    {
      "autoNo": "98624891033555208",
      "applyDate": "2024/01/20 11:30:34",
      "jobNo": 11710254,
      "jobName": "Junior Software Engineer 初級軟體工程師(台北總公司)",
      "jobUrl": "//www.104.com.tw/job/6yzou",
      "custName": "山富國際旅行社股份有限公司",
      "custUrl": "//www.104.com.tw/company/aijifeg",
      "snapshotUrl": "//pda.104.com.tw/profile/applySnapshot?sid=b7tpny",
      "examReportUrl": "",
      "custCheckDate": "2024/01/20 11:38:18",
      "custReplyDate": "",
      "replyUrl": "",
      "hrReplyCount": 0,
      "analysisType": 2,
      "analysisUrl": "//www.104.com.tw/jobs/apply/analysis/6yzou",
      "jobSwitch": "on",
      "custSwitch": "on",
      "cancelDeadline": ""
    },
    {
      "autoNo": "98624891033554326",
      "applyDate": "2024/01/20 11:28:44",
      "jobNo": 12848964,
      "jobName": "I102 Java全端軟體工程師(台北,高雄,可遠端工作)",
      "jobUrl": "//www.104.com.tw/job/7nebo",
      "custName": "台灣大哥大股份有限公司",
      "custUrl": "//www.104.com.tw/company/18n48ptc",
      "snapshotUrl": "//pda.104.com.tw/profile/applySnapshot?sid=b7tpkh",
      "examReportUrl": "",
      "custCheckDate": "2024/01/25 14:49:01",
      "custReplyDate": "",
      "replyUrl": "",
      "hrReplyCount": 0,
      "analysisType": 3,
      "analysisUrl": "//www.104.com.tw/jobs/apply/analysis/7nebo",
      "jobSwitch": "on",
      "custSwitch": "on",
      "cancelDeadline": ""
    },
    {
      "autoNo": "98624891033553879",
      "applyDate": "2024/01/20 11:27:37",
      "jobNo": 12912400,
      "jobName": "軟體工程師(管理部1)",
      "jobUrl": "//www.104.com.tw/job/7or9s",
      "custName": "凌群電腦股份有限公司",
      "custUrl": "//www.104.com.tw/company/2a5ju40",
      "snapshotUrl": "//pda.104.com.tw/profile/applySnapshot?sid=b7tpio",
      "examReportUrl": "",
      "custCheckDate": "",
      "custReplyDate": "",
      "replyUrl": "",
      "hrReplyCount": 0,
      "analysisType": 1,
      "analysisUrl": "//www.104.com.tw/jobs/apply/analysis/7or9s",
      "jobSwitch": "on",
      "custSwitch": "on",
      "cancelDeadline": ""
    },
    {
      "autoNo": "98624891033553584",
      "applyDate": "2024/01/20 11:26:57",
      "jobNo": 12821383,
      "jobName": "資訊部-JAVA程式開發人員",
      "jobUrl": "//www.104.com.tw/job/7mt1j",
      "custName": "兆豐產物保險股份有限公司",
      "custUrl": "//www.104.com.tw/company/1f3u2p4",
      "snapshotUrl": "//pda.104.com.tw/profile/applySnapshot?sid=b7tphb",
      "examReportUrl": "",
      "custCheckDate": "2024/01/22 09:23:22",
      "custReplyDate": "",
      "replyUrl": "",
      "hrReplyCount": 0,
      "analysisType": 2,
      "analysisUrl": "//www.104.com.tw/jobs/apply/analysis/7mt1j",
      "jobSwitch": "on",
      "custSwitch": "on",
      "cancelDeadline": ""
    },
    {
      "autoNo": "98624891033553212",
      "applyDate": "2024/01/20 11:26:13",
      "jobNo": 13610576,
      "jobName": "後端工程師",
      "jobUrl": "//www.104.com.tw/job/83pzk",
      "custName": "欣技資訊股份有限公司",
      "custUrl": "//www.104.com.tw/company/alcg2cw",
      "snapshotUrl": "//pda.104.com.tw/profile/applySnapshot?sid=b7tpfx",
      "examReportUrl": "",
      "custCheckDate": "",
      "custReplyDate": "",
      "replyUrl": "",
      "hrReplyCount": 0,
      "analysisType": 3,
      "analysisUrl": "//www.104.com.tw/jobs/apply/analysis/83pzk",
      "jobSwitch": "on",
      "custSwitch": "on",
      "cancelDeadline": ""
    },
    {
      "autoNo": "98624891033552607",
      "applyDate": "2024/01/20 11:25:09",
      "jobNo": 12428549,
      "jobName": "Backend後端工程師(數位創新組)",
      "jobUrl": "//www.104.com.tw/job/7edxh",
      "custName": "華南永昌綜合證券股份有限公司",
      "custUrl": "//www.104.com.tw/company/ajn9wkw",
      "snapshotUrl": "//pda.104.com.tw/profile/applySnapshot?sid=b7tpdu",
      "examReportUrl": "",
      "custCheckDate": "",
      "custReplyDate": "",
      "replyUrl": "",
      "hrReplyCount": 0,
      "analysisType": 3,
      "analysisUrl": "//www.104.com.tw/jobs/apply/analysis/7edxh",
      "jobSwitch": "on",
      "custSwitch": "on",
      "cancelDeadline": ""
    },
    {
      "autoNo": "98624891033552334",
      "applyDate": "2024/01/20 11:24:31",
      "jobNo": 12755450,
      "jobName": "【台北總部】eHRD事業群_研發處_後端工程師(JAVA)",
      "jobUrl": "//www.104.com.tw/job/7le62",
      "custName": "旭聯科技股份有限公司",
      "custUrl": "//www.104.com.tw/company/18kwuzq8",
      "snapshotUrl": "//pda.104.com.tw/profile/applySnapshot?sid=b7tpce",
      "examReportUrl": "",
      "custCheckDate": "",
      "custReplyDate": "",
      "replyUrl": "",
      "hrReplyCount": 0,
      "analysisType": 1,
      "analysisUrl": "//www.104.com.tw/jobs/apply/analysis/7le62",
      "jobSwitch": "on",
      "custSwitch": "on",
      "cancelDeadline": ""
    },
    {
      "autoNo": "98624891033550156",
      "applyDate": "2024/01/20 11:20:17",
      "jobNo": 13435937,
      "jobName": "程式設計師(總公司)",
      "jobUrl": "//www.104.com.tw/job/7zz8h",
      "custName": "新光三越百貨股份有限公司",
      "custUrl": "//www.104.com.tw/company/at2p28o",
      "snapshotUrl": "//pda.104.com.tw/profile/applySnapshot?sid=b7tp3y",
      "examReportUrl": "",
      "custCheckDate": "2024/01/22 17:30:37",
      "custReplyDate": "2024/01/26 10:54:14",
      "replyUrl": "//pda.104.com.tw/work/message/chat/7zz8h",
      "hrReplyCount": 0,
      "analysisType": 2,
      "analysisUrl": "//www.104.com.tw/jobs/apply/analysis/7zz8h",
      "jobSwitch": "on",
      "custSwitch": "on",
      "cancelDeadline": ""
    }
  ],
  "metadata": {
    "pagination": {
      "count": 20,
      "total": 28,
      "currentPage": 1,
      "lastPage": 2
    }
  }
}